^C:\USERS\NABIL MIRI\DOCUMENTS\VISUAL STUDIO 2015\PROJECTS\C++ STUFF\PRACTICE\CALCULATOR\STDAFX.CPP
C:\USERS\NABIL MIRI\DOCUMENTS\VISUAL STUDIO 2015\PROJECTS\C++ STUFF\PRACTICE\CALCULATOR\X64\DEBUG\CALCULATOR.PCH
C:\USERS\NABIL MIRI\DOCUMENTS\VISUAL STUDIO 2015\PROJECTS\C++ STUFF\PRACTICE\CALCULATOR\X64\DEBUG\VC140.PDB
C:\USERS\NABIL MIRI\DOCUMENTS\VISUAL STUDIO 2015\PROJECTS\C++ STUFF\PRACTICE\CALCULATOR\X64\DEBUG\VC140.IDB
C:\USERS\NABIL MIRI\DOCUMENTS\VISUAL STUDIO 2015\PROJECTS\C++ STUFF\PRACTICE\CALCULATOR\X64\DEBUG\STDAFX.OBJ
^C:\USERS\NABIL MIRI\DOCUMENTS\VISUAL STUDIO 2015\PROJECTS\C++ STUFF\PRACTICE\CALCULATOR\CALCULATOR.CPP
C:\USERS\NABIL MIRI\DOCUMENTS\VISUAL STUDIO 2015\PROJECTS\C++ STUFF\PRACTICE\CALCULATOR\X64\DEBUG\VC140.PDB
C:\USERS\NABIL MIRI\DOCUMENTS\VISUAL STUDIO 2015\PROJECTS\C++ STUFF\PRACTICE\CALCULATOR\X64\DEBUG\VC140.IDB
C:\USERS\NABIL MIRI\DOCUMENTS\VISUAL STUDIO 2015\PROJECTS\C++ STUFF\PRACTICE\CALCULATOR\X64\DEBUG\CALCULATOR.OBJ
