^C:\USERS\NABIL MIRI\DOCUMENTS\VISUAL STUDIO 2015\PROJECTS\C++ STUFF\PRACTICE\CALCULATOR\X64\DEBUG\CALCULATOR.OBJ|C:\USERS\NABIL MIRI\DOCUMENTS\VISUAL STUDIO 2015\PROJECTS\C++ STUFF\PRACTICE\CALCULATOR\X64\DEBUG\STDAFX.OBJ
C:\USERS\NABIL MIRI\DOCUMENTS\VISUAL STUDIO 2015\PROJECTS\C++ STUFF\PRACTICE\X64\DEBUG\CALCULATOR.ILK
C:\USERS\NABIL MIRI\DOCUMENTS\VISUAL STUDIO 2015\PROJECTS\C++ STUFF\PRACTICE\X64\DEBUG\CALCULATOR.EXE
C:\USERS\NABIL MIRI\DOCUMENTS\VISUAL STUDIO 2015\PROJECTS\C++ STUFF\PRACTICE\X64\DEBUG\CALCULATOR.PDB
