^C:\USERS\NABIL MIRI\DOCUMENTS\VISUAL STUDIO 2015\PROJECTS\C++ PROJECTS\PRACTICE\RNDMNUMGENERATOR\RNDMNUMGENERATOR.CPP|C:\USERS\NABIL MIRI\DOCUMENTS\VISUAL STUDIO 2015\PROJECTS\C++ PROJECTS\PRACTICE\RNDMNUMGENERATOR\STDAFX.CPP
C:\USERS\NABIL MIRI\DOCUMENTS\VISUAL STUDIO 2015\PROJECTS\C++ PROJECTS\PRACTICE\RNDMNUMGENERATOR\X64\DEBUG\VC140.PDB
C:\USERS\NABIL MIRI\DOCUMENTS\VISUAL STUDIO 2015\PROJECTS\C++ PROJECTS\PRACTICE\RNDMNUMGENERATOR\X64\DEBUG\VC140.IDB
C:\USERS\NABIL MIRI\DOCUMENTS\VISUAL STUDIO 2015\PROJECTS\C++ PROJECTS\PRACTICE\RNDMNUMGENERATOR\X64\DEBUG\RNDMNUMGENERATOR.OBJ
C:\USERS\NABIL MIRI\DOCUMENTS\VISUAL STUDIO 2015\PROJECTS\C++ PROJECTS\PRACTICE\RNDMNUMGENERATOR\X64\DEBUG\STDAFX.OBJ
^C:\USERS\NABIL MIRI\DOCUMENTS\VISUAL STUDIO 2015\PROJECTS\C++ PROJECTS\PRACTICE\RNDMNUMGENERATOR\RNDMNUMGENERATOR.CPP
C:\USERS\NABIL MIRI\DOCUMENTS\VISUAL STUDIO 2015\PROJECTS\C++ PROJECTS\PRACTICE\RNDMNUMGENERATOR\X64\DEBUG\VC140.PDB
^C:\USERS\NABIL MIRI\DOCUMENTS\VISUAL STUDIO 2015\PROJECTS\C++ PROJECTS\PRACTICE\RNDMNUMGENERATOR\STDAFX.CPP
C:\USERS\NABIL MIRI\DOCUMENTS\VISUAL STUDIO 2015\PROJECTS\C++ PROJECTS\PRACTICE\RNDMNUMGENERATOR\X64\DEBUG\VC140.PDB
